LOG_FILE.log
UVM_INFO /home/runner/gates_scoreboard.sv(61) @ 5: uvm_test_top.env_h.scoreboard_h [write_drv STIM]  a=0  b=1
UVM_INFO /home/runner/gates_scoreboard.sv(105) @ 6: uvm_test_top.env_h.scoreboard_h [write_mon OUT ]  a=0  b=1 ||  andd=0 orr=1 nott_a=1 nott_b=0 xorr=1 xnorr=0 buff_a=0 buff_b=1 nandd=1 norr=0
UVM_INFO /home/runner/gates_scoreboard.sv(61) @ 15: uvm_test_top.env_h.scoreboard_h [write_drv STIM]  a=0  b=1
UVM_INFO /home/runner/gates_scoreboard.sv(105) @ 16: uvm_test_top.env_h.scoreboard_h [write_mon OUT ]  a=0  b=1 ||  andd=0 orr=1 nott_a=1 nott_b=0 xorr=1 xnorr=0 buff_a=0 buff_b=1 nandd=1 norr=0
UVM_INFO /home/runner/gates_scoreboard.sv(126) @ 16: uvm_test_top.env_h.scoreboard_h [
 [ PASS ]  a=0  b=1 ||  andd=0 orr=1 nott_a=1 nott_b=0 xorr=1 xnorr=0 buff_a=0 buff_b=1 nandd=1 norr=0
UVM_INFO /home/runner/gates_scoreboard.sv(61) @ 25: uvm_test_top.env_h.scoreboard_h [write_drv STIM]  a=0  b=1
UVM_INFO /home/runner/gates_scoreboard.sv(105) @ 26: uvm_test_top.env_h.scoreboard_h [write_mon OUT ]  a=0  b=1 ||  andd=0 orr=1 nott_a=1 nott_b=0 xorr=1 xnorr=0 buff_a=0 buff_b=1 nandd=1 norr=0
UVM_INFO /home/runner/gates_scoreboard.sv(126) @ 26: uvm_test_top.env_h.scoreboard_h [
 [ PASS ]  a=0  b=1 ||  andd=0 orr=1 nott_a=1 nott_b=0 xorr=1 xnorr=0 buff_a=0 buff_b=1 nandd=1 norr=0
UVM_INFO /home/runner/gates_scoreboard.sv(61) @ 35: uvm_test_top.env_h.scoreboard_h [write_drv STIM]  a=1  b=0
UVM_INFO /home/runner/gates_scoreboard.sv(105) @ 36: uvm_test_top.env_h.scoreboard_h [write_mon OUT ]  a=1  b=0 ||  andd=0 orr=1 nott_a=0 nott_b=1 xorr=1 xnorr=0 buff_a=1 buff_b=0 nandd=1 norr=0
UVM_INFO /home/runner/gates_scoreboard.sv(126) @ 36: uvm_test_top.env_h.scoreboard_h [
 [ PASS ]  a=1  b=0 ||  andd=0 orr=1 nott_a=0 nott_b=1 xorr=1 xnorr=0 buff_a=1 buff_b=0 nandd=1 norr=0
UVM_INFO /home/runner/gates_scoreboard.sv(61) @ 45: uvm_test_top.env_h.scoreboard_h [write_drv STIM]  a=0  b=1
UVM_INFO /home/runner/gates_scoreboard.sv(105) @ 46: uvm_test_top.env_h.scoreboard_h [write_mon OUT ]  a=0  b=1 ||  andd=0 orr=1 nott_a=1 nott_b=0 xorr=1 xnorr=0 buff_a=0 buff_b=1 nandd=1 norr=0
UVM_INFO /home/runner/gates_scoreboard.sv(126) @ 46: uvm_test_top.env_h.scoreboard_h [
 [ PASS ]  a=0  b=1 ||  andd=0 orr=1 nott_a=1 nott_b=0 xorr=1 xnorr=0 buff_a=0 buff_b=1 nandd=1 norr=0
UVM_INFO /home/runner/gates_scoreboard.sv(61) @ 55: uvm_test_top.env_h.scoreboard_h [write_drv STIM]  a=1  b=0
UVM_INFO /home/runner/gates_scoreboard.sv(105) @ 56: uvm_test_top.env_h.scoreboard_h [write_mon OUT ]  a=1  b=0 ||  andd=0 orr=1 nott_a=0 nott_b=1 xorr=1 xnorr=0 buff_a=1 buff_b=0 nandd=1 norr=0
UVM_INFO /home/runner/gates_scoreboard.sv(126) @ 56: uvm_test_top.env_h.scoreboard_h [
 [ PASS ]  a=1  b=0 ||  andd=0 orr=1 nott_a=0 nott_b=1 xorr=1 xnorr=0 buff_a=1 buff_b=0 nandd=1 norr=0
UVM_INFO /home/runner/gates_scoreboard.sv(61) @ 65: uvm_test_top.env_h.scoreboard_h [write_drv STIM]  a=0  b=1
UVM_INFO /home/runner/gates_scoreboard.sv(105) @ 66: uvm_test_top.env_h.scoreboard_h [write_mon OUT ]  a=0  b=1 ||  andd=0 orr=1 nott_a=1 nott_b=0 xorr=1 xnorr=0 buff_a=0 buff_b=1 nandd=1 norr=0
UVM_INFO /home/runner/gates_scoreboard.sv(126) @ 66: uvm_test_top.env_h.scoreboard_h [
 [ PASS ]  a=0  b=1 ||  andd=0 orr=1 nott_a=1 nott_b=0 xorr=1 xnorr=0 buff_a=0 buff_b=1 nandd=1 norr=0
UVM_INFO /home/runner/gates_scoreboard.sv(61) @ 75: uvm_test_top.env_h.scoreboard_h [write_drv STIM]  a=1  b=0
UVM_INFO /home/runner/gates_scoreboard.sv(105) @ 76: uvm_test_top.env_h.scoreboard_h [write_mon OUT ]  a=1  b=0 ||  andd=0 orr=1 nott_a=0 nott_b=1 xorr=1 xnorr=0 buff_a=1 buff_b=0 nandd=1 norr=0
UVM_INFO /home/runner/gates_scoreboard.sv(126) @ 76: uvm_test_top.env_h.scoreboard_h [
 [ PASS ]  a=1  b=0 ||  andd=0 orr=1 nott_a=0 nott_b=1 xorr=1 xnorr=0 buff_a=1 buff_b=0 nandd=1 norr=0
UVM_INFO /home/runner/gates_scoreboard.sv(61) @ 85: uvm_test_top.env_h.scoreboard_h [write_drv STIM]  a=1  b=0
UVM_INFO /home/runner/gates_scoreboard.sv(105) @ 86: uvm_test_top.env_h.scoreboard_h [write_mon OUT ]  a=1  b=0 ||  andd=0 orr=1 nott_a=0 nott_b=1 xorr=1 xnorr=0 buff_a=1 buff_b=0 nandd=1 norr=0
UVM_INFO /home/runner/gates_scoreboard.sv(126) @ 86: uvm_test_top.env_h.scoreboard_h [
 [ PASS ]  a=1  b=0 ||  andd=0 orr=1 nott_a=0 nott_b=1 xorr=1 xnorr=0 buff_a=1 buff_b=0 nandd=1 norr=0
UVM_INFO /home/runner/gates_scoreboard.sv(61) @ 95: uvm_test_top.env_h.scoreboard_h [write_drv STIM]  a=1  b=0
UVM_INFO /home/runner/gates_scoreboard.sv(105) @ 96: uvm_test_top.env_h.scoreboard_h [write_mon OUT ]  a=1  b=0 ||  andd=0 orr=1 nott_a=0 nott_b=1 xorr=1 xnorr=0 buff_a=1 buff_b=0 nandd=1 norr=0
UVM_INFO /home/runner/gates_scoreboard.sv(126) @ 96: uvm_test_top.env_h.scoreboard_h [
 [ PASS ]  a=1  b=0 ||  andd=0 orr=1 nott_a=0 nott_b=1 xorr=1 xnorr=0 buff_a=1 buff_b=0 nandd=1 norr=0
UVM_INFO /home/runner/gates_scoreboard.sv(61) @ 105: uvm_test_top.env_h.scoreboard_h [write_drv STIM]  a=1  b=0
UVM_INFO /home/runner/gates_scoreboard.sv(105) @ 106: uvm_test_top.env_h.scoreboard_h [write_mon OUT ]  a=1  b=0 ||  andd=0 orr=1 nott_a=0 nott_b=1 xorr=1 xnorr=0 buff_a=1 buff_b=0 nandd=1 norr=0
UVM_INFO /home/runner/gates_scoreboard.sv(126) @ 106: uvm_test_top.env_h.scoreboard_h [
 [ PASS ]  a=1  b=0 ||  andd=0 orr=1 nott_a=0 nott_b=1 xorr=1 xnorr=0 buff_a=1 buff_b=0 nandd=1 norr=0
UVM_INFO /home/runner/gates_scoreboard.sv(61) @ 115: uvm_test_top.env_h.scoreboard_h [write_drv STIM]  a=1  b=0
UVM_INFO /home/runner/gates_scoreboard.sv(105) @ 116: uvm_test_top.env_h.scoreboard_h [write_mon OUT ]  a=1  b=0 ||  andd=0 orr=1 nott_a=0 nott_b=1 xorr=1 xnorr=0 buff_a=1 buff_b=0 nandd=1 norr=0
UVM_INFO /home/runner/gates_scoreboard.sv(126) @ 116: uvm_test_top.env_h.scoreboard_h [
 [ PASS ]  a=1  b=0 ||  andd=0 orr=1 nott_a=0 nott_b=1 xorr=1 xnorr=0 buff_a=1 buff_b=0 nandd=1 norr=0
UVM_INFO /home/runner/gates_scoreboard.sv(61) @ 125: uvm_test_top.env_h.scoreboard_h [write_drv STIM]  a=1  b=0
UVM_INFO /home/runner/gates_scoreboard.sv(105) @ 126: uvm_test_top.env_h.scoreboard_h [write_mon OUT ]  a=1  b=0 ||  andd=0 orr=1 nott_a=0 nott_b=1 xorr=1 xnorr=0 buff_a=1 buff_b=0 nandd=1 norr=0
UVM_INFO /home/runner/gates_scoreboard.sv(126) @ 126: uvm_test_top.env_h.scoreboard_h [
 [ PASS ]  a=1  b=0 ||  andd=0 orr=1 nott_a=0 nott_b=1 xorr=1 xnorr=0 buff_a=1 buff_b=0 nandd=1 norr=0
UVM_INFO /home/runner/gates_scoreboard.sv(61) @ 135: uvm_test_top.env_h.scoreboard_h [write_drv STIM]  a=0  b=1
UVM_INFO /home/runner/gates_scoreboard.sv(105) @ 136: uvm_test_top.env_h.scoreboard_h [write_mon OUT ]  a=0  b=1 ||  andd=0 orr=1 nott_a=1 nott_b=0 xorr=1 xnorr=0 buff_a=0 buff_b=1 nandd=1 norr=0
UVM_INFO /home/runner/gates_scoreboard.sv(126) @ 136: uvm_test_top.env_h.scoreboard_h [
 [ PASS ]  a=0  b=1 ||  andd=0 orr=1 nott_a=1 nott_b=0 xorr=1 xnorr=0 buff_a=0 buff_b=1 nandd=1 norr=0
UVM_INFO /home/runner/gates_scoreboard.sv(61) @ 145: uvm_test_top.env_h.scoreboard_h [write_drv STIM]  a=1  b=0
UVM_INFO /home/runner/gates_scoreboard.sv(105) @ 146: uvm_test_top.env_h.scoreboard_h [write_mon OUT ]  a=1  b=0 ||  andd=0 orr=1 nott_a=0 nott_b=1 xorr=1 xnorr=0 buff_a=1 buff_b=0 nandd=1 norr=0
UVM_INFO /home/runner/gates_scoreboard.sv(126) @ 146: uvm_test_top.env_h.scoreboard_h [
 [ PASS ]  a=1  b=0 ||  andd=0 orr=1 nott_a=0 nott_b=1 xorr=1 xnorr=0 buff_a=1 buff_b=0 nandd=1 norr=0
UVM_INFO /home/runner/gates_scoreboard.sv(61) @ 155: uvm_test_top.env_h.scoreboard_h [write_drv STIM]  a=0  b=1
UVM_INFO /home/runner/gates_scoreboard.sv(105) @ 156: uvm_test_top.env_h.scoreboard_h [write_mon OUT ]  a=0  b=1 ||  andd=0 orr=1 nott_a=1 nott_b=0 xorr=1 xnorr=0 buff_a=0 buff_b=1 nandd=1 norr=0
UVM_INFO /home/runner/gates_scoreboard.sv(126) @ 156: uvm_test_top.env_h.scoreboard_h [
 [ PASS ]  a=0  b=1 ||  andd=0 orr=1 nott_a=1 nott_b=0 xorr=1 xnorr=0 buff_a=0 buff_b=1 nandd=1 norr=0
UVM_INFO /home/runner/gates_scoreboard.sv(61) @ 165: uvm_test_top.env_h.scoreboard_h [write_drv STIM]  a=1  b=0
UVM_INFO /home/runner/gates_scoreboard.sv(105) @ 166: uvm_test_top.env_h.scoreboard_h [write_mon OUT ]  a=1  b=0 ||  andd=0 orr=1 nott_a=0 nott_b=1 xorr=1 xnorr=0 buff_a=1 buff_b=0 nandd=1 norr=0
UVM_INFO /home/runner/gates_scoreboard.sv(126) @ 166: uvm_test_top.env_h.scoreboard_h [
 [ PASS ]  a=1  b=0 ||  andd=0 orr=1 nott_a=0 nott_b=1 xorr=1 xnorr=0 buff_a=1 buff_b=0 nandd=1 norr=0
UVM_INFO /home/runner/gates_scoreboard.sv(61) @ 175: uvm_test_top.env_h.scoreboard_h [write_drv STIM]  a=0  b=1
UVM_INFO /home/runner/gates_scoreboard.sv(105) @ 176: uvm_test_top.env_h.scoreboard_h [write_mon OUT ]  a=0  b=1 ||  andd=0 orr=1 nott_a=1 nott_b=0 xorr=1 xnorr=0 buff_a=0 buff_b=1 nandd=1 norr=0
UVM_INFO /home/runner/gates_scoreboard.sv(126) @ 176: uvm_test_top.env_h.scoreboard_h [
 [ PASS ]  a=0  b=1 ||  andd=0 orr=1 nott_a=1 nott_b=0 xorr=1 xnorr=0 buff_a=0 buff_b=1 nandd=1 norr=0
UVM_INFO /home/runner/gates_scoreboard.sv(61) @ 185: uvm_test_top.env_h.scoreboard_h [write_drv STIM]  a=0  b=1
UVM_INFO /home/runner/gates_scoreboard.sv(105) @ 186: uvm_test_top.env_h.scoreboard_h [write_mon OUT ]  a=0  b=1 ||  andd=0 orr=1 nott_a=1 nott_b=0 xorr=1 xnorr=0 buff_a=0 buff_b=1 nandd=1 norr=0
UVM_INFO /home/runner/gates_scoreboard.sv(126) @ 186: uvm_test_top.env_h.scoreboard_h [
 [ PASS ]  a=0  b=1 ||  andd=0 orr=1 nott_a=1 nott_b=0 xorr=1 xnorr=0 buff_a=0 buff_b=1 nandd=1 norr=0
UVM_INFO /home/runner/gates_scoreboard.sv(61) @ 195: uvm_test_top.env_h.scoreboard_h [write_drv STIM]  a=0  b=1
UVM_INFO /home/runner/gates_scoreboard.sv(105) @ 196: uvm_test_top.env_h.scoreboard_h [write_mon OUT ]  a=0  b=1 ||  andd=0 orr=1 nott_a=1 nott_b=0 xorr=1 xnorr=0 buff_a=0 buff_b=1 nandd=1 norr=0
UVM_INFO /home/runner/gates_scoreboard.sv(126) @ 196: uvm_test_top.env_h.scoreboard_h [
 [ PASS ]  a=0  b=1 ||  andd=0 orr=1 nott_a=1 nott_b=0 xorr=1 xnorr=0 buff_a=0 buff_b=1 nandd=1 norr=0
UVM_INFO /home/runner/gates_scoreboard.sv(61) @ 205: uvm_test_top.env_h.scoreboard_h [write_drv STIM]  a=0  b=1
UVM_INFO /home/runner/gates_scoreboard.sv(105) @ 206: uvm_test_top.env_h.scoreboard_h [write_mon OUT ]  a=0  b=1 ||  andd=0 orr=1 nott_a=1 nott_b=0 xorr=1 xnorr=0 buff_a=0 buff_b=1 nandd=1 norr=0
UVM_INFO /home/runner/gates_scoreboard.sv(126) @ 206: uvm_test_top.env_h.scoreboard_h [
 [ PASS ]  a=0  b=1 ||  andd=0 orr=1 nott_a=1 nott_b=0 xorr=1 xnorr=0 buff_a=0 buff_b=1 nandd=1 norr=0
UVM_INFO /home/runner/gates_scoreboard.sv(61) @ 215: uvm_test_top.env_h.scoreboard_h [write_drv STIM]  a=0  b=1
UVM_INFO /home/runner/gates_scoreboard.sv(105) @ 216: uvm_test_top.env_h.scoreboard_h [write_mon OUT ]  a=0  b=1 ||  andd=0 orr=1 nott_a=1 nott_b=0 xorr=1 xnorr=0 buff_a=0 buff_b=1 nandd=1 norr=0
UVM_INFO /home/runner/gates_scoreboard.sv(126) @ 216: uvm_test_top.env_h.scoreboard_h [
 [ PASS ]  a=0  b=1 ||  andd=0 orr=1 nott_a=1 nott_b=0 xorr=1 xnorr=0 buff_a=0 buff_b=1 nandd=1 norr=0
UVM_INFO /home/runner/gates_scoreboard.sv(61) @ 225: uvm_test_top.env_h.scoreboard_h [write_drv STIM]  a=0  b=1
UVM_INFO /home/runner/gates_scoreboard.sv(105) @ 226: uvm_test_top.env_h.scoreboard_h [write_mon OUT ]  a=0  b=1 ||  andd=0 orr=1 nott_a=1 nott_b=0 xorr=1 xnorr=0 buff_a=0 buff_b=1 nandd=1 norr=0
UVM_INFO /home/runner/gates_scoreboard.sv(126) @ 226: uvm_test_top.env_h.scoreboard_h [
 [ PASS ]  a=0  b=1 ||  andd=0 orr=1 nott_a=1 nott_b=0 xorr=1 xnorr=0 buff_a=0 buff_b=1 nandd=1 norr=0
UVM_INFO /home/runner/gates_scoreboard.sv(61) @ 235: uvm_test_top.env_h.scoreboard_h [write_drv STIM]  a=1  b=0
UVM_INFO /home/runner/gates_scoreboard.sv(105) @ 236: uvm_test_top.env_h.scoreboard_h [write_mon OUT ]  a=1  b=0 ||  andd=0 orr=1 nott_a=0 nott_b=1 xorr=1 xnorr=0 buff_a=1 buff_b=0 nandd=1 norr=0
UVM_INFO /home/runner/gates_scoreboard.sv(126) @ 236: uvm_test_top.env_h.scoreboard_h [
 [ PASS ]  a=1  b=0 ||  andd=0 orr=1 nott_a=0 nott_b=1 xorr=1 xnorr=0 buff_a=1 buff_b=0 nandd=1 norr=0
UVM_INFO /home/runner/gates_scoreboard.sv(61) @ 245: uvm_test_top.env_h.scoreboard_h [write_drv STIM]  a=0  b=1
UVM_INFO /home/runner/gates_scoreboard.sv(105) @ 246: uvm_test_top.env_h.scoreboard_h [write_mon OUT ]  a=0  b=1 ||  andd=0 orr=1 nott_a=1 nott_b=0 xorr=1 xnorr=0 buff_a=0 buff_b=1 nandd=1 norr=0
UVM_INFO /home/runner/gates_scoreboard.sv(126) @ 246: uvm_test_top.env_h.scoreboard_h [
 [ PASS ]  a=0  b=1 ||  andd=0 orr=1 nott_a=1 nott_b=0 xorr=1 xnorr=0 buff_a=0 buff_b=1 nandd=1 norr=0
UVM_INFO /home/runner/gates_scoreboard.sv(61) @ 255: uvm_test_top.env_h.scoreboard_h [write_drv STIM]  a=1  b=0
UVM_INFO /home/runner/gates_scoreboard.sv(105) @ 256: uvm_test_top.env_h.scoreboard_h [write_mon OUT ]  a=1  b=0 ||  andd=0 orr=1 nott_a=0 nott_b=1 xorr=1 xnorr=0 buff_a=1 buff_b=0 nandd=1 norr=0
UVM_INFO /home/runner/gates_scoreboard.sv(126) @ 256: uvm_test_top.env_h.scoreboard_h [
 [ PASS ]  a=1  b=0 ||  andd=0 orr=1 nott_a=0 nott_b=1 xorr=1 xnorr=0 buff_a=1 buff_b=0 nandd=1 norr=0
UVM_INFO /home/runner/gates_scoreboard.sv(61) @ 265: uvm_test_top.env_h.scoreboard_h [write_drv STIM]  a=0  b=1
UVM_INFO /home/runner/gates_scoreboard.sv(105) @ 266: uvm_test_top.env_h.scoreboard_h [write_mon OUT ]  a=0  b=1 ||  andd=0 orr=1 nott_a=1 nott_b=0 xorr=1 xnorr=0 buff_a=0 buff_b=1 nandd=1 norr=0
UVM_INFO /home/runner/gates_scoreboard.sv(126) @ 266: uvm_test_top.env_h.scoreboard_h [
 [ PASS ]  a=0  b=1 ||  andd=0 orr=1 nott_a=1 nott_b=0 xorr=1 xnorr=0 buff_a=0 buff_b=1 nandd=1 norr=0
UVM_INFO /home/runner/gates_scoreboard.sv(61) @ 275: uvm_test_top.env_h.scoreboard_h [write_drv STIM]  a=1  b=0
UVM_INFO /home/runner/gates_scoreboard.sv(105) @ 276: uvm_test_top.env_h.scoreboard_h [write_mon OUT ]  a=1  b=0 ||  andd=0 orr=1 nott_a=0 nott_b=1 xorr=1 xnorr=0 buff_a=1 buff_b=0 nandd=1 norr=0
UVM_INFO /home/runner/gates_scoreboard.sv(126) @ 276: uvm_test_top.env_h.scoreboard_h [
 [ PASS ]  a=1  b=0 ||  andd=0 orr=1 nott_a=0 nott_b=1 xorr=1 xnorr=0 buff_a=1 buff_b=0 nandd=1 norr=0
UVM_INFO /home/runner/gates_scoreboard.sv(61) @ 285: uvm_test_top.env_h.scoreboard_h [write_drv STIM]  a=1  b=0
UVM_INFO /home/runner/gates_scoreboard.sv(105) @ 286: uvm_test_top.env_h.scoreboard_h [write_mon OUT ]  a=1  b=0 ||  andd=0 orr=1 nott_a=0 nott_b=1 xorr=1 xnorr=0 buff_a=1 buff_b=0 nandd=1 norr=0
UVM_INFO /home/runner/gates_scoreboard.sv(126) @ 286: uvm_test_top.env_h.scoreboard_h [
 [ PASS ]  a=1  b=0 ||  andd=0 orr=1 nott_a=0 nott_b=1 xorr=1 xnorr=0 buff_a=1 buff_b=0 nandd=1 norr=0
UVM_INFO /home/runner/gates_scoreboard.sv(61) @ 295: uvm_test_top.env_h.scoreboard_h [write_drv STIM]  a=1  b=0
UVM_INFO /home/runner/gates_scoreboard.sv(105) @ 296: uvm_test_top.env_h.scoreboard_h [write_mon OUT ]  a=1  b=0 ||  andd=0 orr=1 nott_a=0 nott_b=1 xorr=1 xnorr=0 buff_a=1 buff_b=0 nandd=1 norr=0
UVM_INFO /home/runner/gates_scoreboard.sv(126) @ 296: uvm_test_top.env_h.scoreboard_h [
 [ PASS ]  a=1  b=0 ||  andd=0 orr=1 nott_a=0 nott_b=1 xorr=1 xnorr=0 buff_a=1 buff_b=0 nandd=1 norr=0
UVM_INFO /home/runner/gates_scoreboard.sv(61) @ 305: uvm_test_top.env_h.scoreboard_h [write_drv STIM]  a=1  b=0
UVM_INFO /home/runner/gates_scoreboard.sv(105) @ 306: uvm_test_top.env_h.scoreboard_h [write_mon OUT ]  a=1  b=0 ||  andd=0 orr=1 nott_a=0 nott_b=1 xorr=1 xnorr=0 buff_a=1 buff_b=0 nandd=1 norr=0
UVM_INFO /home/runner/gates_scoreboard.sv(126) @ 306: uvm_test_top.env_h.scoreboard_h [
 [ PASS ]  a=1  b=0 ||  andd=0 orr=1 nott_a=0 nott_b=1 xorr=1 xnorr=0 buff_a=1 buff_b=0 nandd=1 norr=0
UVM_INFO /home/runner/gates_scoreboard.sv(61) @ 315: uvm_test_top.env_h.scoreboard_h [write_drv STIM]  a=1  b=0
UVM_INFO /home/runner/gates_scoreboard.sv(105) @ 316: uvm_test_top.env_h.scoreboard_h [write_mon OUT ]  a=1  b=0 ||  andd=0 orr=1 nott_a=0 nott_b=1 xorr=1 xnorr=0 buff_a=1 buff_b=0 nandd=1 norr=0
UVM_INFO /home/runner/gates_scoreboard.sv(126) @ 316: uvm_test_top.env_h.scoreboard_h [
 [ PASS ]  a=1  b=0 ||  andd=0 orr=1 nott_a=0 nott_b=1 xorr=1 xnorr=0 buff_a=1 buff_b=0 nandd=1 norr=0
UVM_INFO /home/runner/gates_scoreboard.sv(61) @ 325: uvm_test_top.env_h.scoreboard_h [write_drv STIM]  a=1  b=0
UVM_INFO /home/runner/gates_scoreboard.sv(105) @ 326: uvm_test_top.env_h.scoreboard_h [write_mon OUT ]  a=1  b=0 ||  andd=0 orr=1 nott_a=0 nott_b=1 xorr=1 xnorr=0 buff_a=1 buff_b=0 nandd=1 norr=0
UVM_INFO /home/runner/gates_scoreboard.sv(126) @ 326: uvm_test_top.env_h.scoreboard_h [
 [ PASS ]  a=1  b=0 ||  andd=0 orr=1 nott_a=0 nott_b=1 xorr=1 xnorr=0 buff_a=1 buff_b=0 nandd=1 norr=0
UVM_INFO /home/runner/gates_scoreboard.sv(61) @ 335: uvm_test_top.env_h.scoreboard_h [write_drv STIM]  a=0  b=1
UVM_INFO /home/runner/gates_scoreboard.sv(105) @ 336: uvm_test_top.env_h.scoreboard_h [write_mon OUT ]  a=0  b=1 ||  andd=0 orr=1 nott_a=1 nott_b=0 xorr=1 xnorr=0 buff_a=0 buff_b=1 nandd=1 norr=0
UVM_INFO /home/runner/gates_scoreboard.sv(126) @ 336: uvm_test_top.env_h.scoreboard_h [
 [ PASS ]  a=0  b=1 ||  andd=0 orr=1 nott_a=1 nott_b=0 xorr=1 xnorr=0 buff_a=0 buff_b=1 nandd=1 norr=0
UVM_INFO /home/runner/gates_scoreboard.sv(61) @ 345: uvm_test_top.env_h.scoreboard_h [write_drv STIM]  a=1  b=0
UVM_INFO /home/runner/gates_scoreboard.sv(105) @ 346: uvm_test_top.env_h.scoreboard_h [write_mon OUT ]  a=1  b=0 ||  andd=0 orr=1 nott_a=0 nott_b=1 xorr=1 xnorr=0 buff_a=1 buff_b=0 nandd=1 norr=0
UVM_INFO /home/runner/gates_scoreboard.sv(126) @ 346: uvm_test_top.env_h.scoreboard_h [
 [ PASS ]  a=1  b=0 ||  andd=0 orr=1 nott_a=0 nott_b=1 xorr=1 xnorr=0 buff_a=1 buff_b=0 nandd=1 norr=0
UVM_INFO /home/runner/gates_scoreboard.sv(61) @ 355: uvm_test_top.env_h.scoreboard_h [write_drv STIM]  a=0  b=1
UVM_INFO /home/runner/gates_scoreboard.sv(105) @ 356: uvm_test_top.env_h.scoreboard_h [write_mon OUT ]  a=0  b=1 ||  andd=0 orr=1 nott_a=1 nott_b=0 xorr=1 xnorr=0 buff_a=0 buff_b=1 nandd=1 norr=0
UVM_INFO /home/runner/gates_scoreboard.sv(126) @ 356: uvm_test_top.env_h.scoreboard_h [
 [ PASS ]  a=0  b=1 ||  andd=0 orr=1 nott_a=1 nott_b=0 xorr=1 xnorr=0 buff_a=0 buff_b=1 nandd=1 norr=0
UVM_INFO /home/runner/gates_scoreboard.sv(61) @ 365: uvm_test_top.env_h.scoreboard_h [write_drv STIM]  a=1  b=0
UVM_INFO /home/runner/gates_scoreboard.sv(105) @ 366: uvm_test_top.env_h.scoreboard_h [write_mon OUT ]  a=1  b=0 ||  andd=0 orr=1 nott_a=0 nott_b=1 xorr=1 xnorr=0 buff_a=1 buff_b=0 nandd=1 norr=0
UVM_INFO /home/runner/gates_scoreboard.sv(126) @ 366: uvm_test_top.env_h.scoreboard_h [
 [ PASS ]  a=1  b=0 ||  andd=0 orr=1 nott_a=0 nott_b=1 xorr=1 xnorr=0 buff_a=1 buff_b=0 nandd=1 norr=0
UVM_INFO /home/runner/gates_scoreboard.sv(61) @ 375: uvm_test_top.env_h.scoreboard_h [write_drv STIM]  a=0  b=1
UVM_INFO /home/runner/gates_scoreboard.sv(105) @ 376: uvm_test_top.env_h.scoreboard_h [write_mon OUT ]  a=0  b=1 ||  andd=0 orr=1 nott_a=1 nott_b=0 xorr=1 xnorr=0 buff_a=0 buff_b=1 nandd=1 norr=0
UVM_INFO /home/runner/gates_scoreboard.sv(126) @ 376: uvm_test_top.env_h.scoreboard_h [
 [ PASS ]  a=0  b=1 ||  andd=0 orr=1 nott_a=1 nott_b=0 xorr=1 xnorr=0 buff_a=0 buff_b=1 nandd=1 norr=0
UVM_INFO /home/runner/gates_scoreboard.sv(61) @ 385: uvm_test_top.env_h.scoreboard_h [write_drv STIM]  a=0  b=1
UVM_INFO /home/runner/gates_scoreboard.sv(105) @ 386: uvm_test_top.env_h.scoreboard_h [write_mon OUT ]  a=0  b=1 ||  andd=0 orr=1 nott_a=1 nott_b=0 xorr=1 xnorr=0 buff_a=0 buff_b=1 nandd=1 norr=0
UVM_INFO /home/runner/gates_scoreboard.sv(126) @ 386: uvm_test_top.env_h.scoreboard_h [
 [ PASS ]  a=0  b=1 ||  andd=0 orr=1 nott_a=1 nott_b=0 xorr=1 xnorr=0 buff_a=0 buff_b=1 nandd=1 norr=0
UVM_INFO /home/runner/gates_scoreboard.sv(61) @ 395: uvm_test_top.env_h.scoreboard_h [write_drv STIM]  a=0  b=1
UVM_INFO /home/runner/gates_scoreboard.sv(105) @ 396: uvm_test_top.env_h.scoreboard_h [write_mon OUT ]  a=0  b=1 ||  andd=0 orr=1 nott_a=1 nott_b=0 xorr=1 xnorr=0 buff_a=0 buff_b=1 nandd=1 norr=0
UVM_INFO /home/runner/gates_scoreboard.sv(126) @ 396: uvm_test_top.env_h.scoreboard_h [
 [ PASS ]  a=0  b=1 ||  andd=0 orr=1 nott_a=1 nott_b=0 xorr=1 xnorr=0 buff_a=0 buff_b=1 nandd=1 norr=0
UVM_INFO /home/runner/gates_scoreboard.sv(61) @ 405: uvm_test_top.env_h.scoreboard_h [write_drv STIM]  a=0  b=1
UVM_INFO /home/runner/gates_scoreboard.sv(105) @ 406: uvm_test_top.env_h.scoreboard_h [write_mon OUT ]  a=0  b=1 ||  andd=0 orr=1 nott_a=1 nott_b=0 xorr=1 xnorr=0 buff_a=0 buff_b=1 nandd=1 norr=0
UVM_INFO /home/runner/gates_scoreboard.sv(126) @ 406: uvm_test_top.env_h.scoreboard_h [
 [ PASS ]  a=0  b=1 ||  andd=0 orr=1 nott_a=1 nott_b=0 xorr=1 xnorr=0 buff_a=0 buff_b=1 nandd=1 norr=0
UVM_INFO /home/runner/gates_scoreboard.sv(61) @ 415: uvm_test_top.env_h.scoreboard_h [write_drv STIM]  a=0  b=1
UVM_INFO /home/runner/gates_scoreboard.sv(105) @ 416: uvm_test_top.env_h.scoreboard_h [write_mon OUT ]  a=0  b=1 ||  andd=0 orr=1 nott_a=1 nott_b=0 xorr=1 xnorr=0 buff_a=0 buff_b=1 nandd=1 norr=0
UVM_INFO /home/runner/gates_scoreboard.sv(126) @ 416: uvm_test_top.env_h.scoreboard_h [
 [ PASS ]  a=0  b=1 ||  andd=0 orr=1 nott_a=1 nott_b=0 xorr=1 xnorr=0 buff_a=0 buff_b=1 nandd=1 norr=0
UVM_INFO /home/runner/gates_scoreboard.sv(61) @ 425: uvm_test_top.env_h.scoreboard_h [write_drv STIM]  a=0  b=1
UVM_INFO /home/runner/gates_scoreboard.sv(105) @ 426: uvm_test_top.env_h.scoreboard_h [write_mon OUT ]  a=0  b=1 ||  andd=0 orr=1 nott_a=1 nott_b=0 xorr=1 xnorr=0 buff_a=0 buff_b=1 nandd=1 norr=0
UVM_INFO /home/runner/gates_scoreboard.sv(126) @ 426: uvm_test_top.env_h.scoreboard_h [
 [ PASS ]  a=0  b=1 ||  andd=0 orr=1 nott_a=1 nott_b=0 xorr=1 xnorr=0 buff_a=0 buff_b=1 nandd=1 norr=0
UVM_INFO /home/runner/gates_scoreboard.sv(61) @ 435: uvm_test_top.env_h.scoreboard_h [write_drv STIM]  a=1  b=0
UVM_INFO /home/runner/gates_scoreboard.sv(105) @ 436: uvm_test_top.env_h.scoreboard_h [write_mon OUT ]  a=1  b=0 ||  andd=0 orr=1 nott_a=0 nott_b=1 xorr=1 xnorr=0 buff_a=1 buff_b=0 nandd=1 norr=0
UVM_INFO /home/runner/gates_scoreboard.sv(126) @ 436: uvm_test_top.env_h.scoreboard_h [
 [ PASS ]  a=1  b=0 ||  andd=0 orr=1 nott_a=0 nott_b=1 xorr=1 xnorr=0 buff_a=1 buff_b=0 nandd=1 norr=0
UVM_INFO /home/runner/gates_scoreboard.sv(61) @ 445: uvm_test_top.env_h.scoreboard_h [write_drv STIM]  a=0  b=1
UVM_INFO /home/runner/gates_scoreboard.sv(105) @ 446: uvm_test_top.env_h.scoreboard_h [write_mon OUT ]  a=0  b=1 ||  andd=0 orr=1 nott_a=1 nott_b=0 xorr=1 xnorr=0 buff_a=0 buff_b=1 nandd=1 norr=0
